{"jfrog": 
[{"name":"inUse","value":"false","required":"true"},
{"name":"serverUrl","value":"https://cloudmigrate.jfrog.io/cloudmigrate","required":"true"},
{"name":"userName","value":"admin","required":"true"},
{"name":"password","value":"Ex3Mc5Ma7Lh8Fu","required":"true"},
{"name":"apiKey","value":"","required":"false"},
{"name":"excludePatterns","value":"","required":"false"},
{"name":"publishRepoKey","value":"local-maven-repo","required":"true"},
{"name":"pluginRepoKey","value":"remote-maven-repo","required":"true"},
{"name":"snapshotRepoKey","value":"libs-snapshot-local","required":"true"},
{"name":"includeEnvVars","value":"true","required":"true"},
{"name":"envVarsExcludePatterns","value":"*password*,*secret*,*key*,*token*,*passphrase*","required":"true"},
{"name":"timeoutInSeconds","value":"60","required":"true"},
{"name":"buildName","value":"spark-microweb-demo-jfrog-build","required":"true"},
{"name":"buildNumber","value":"001","required":"true"},
{"name":"buildUrl","value":"https://bitbucket.org/tylertravismya/sparkmicroweb/src","required":"false"},
{"name":"licenseAutoDiscover","value":"true","required":"true"},
{"name":"licenseIncludePublishedArtifacts","value":"false","required":"true"},
{"name":"licenseRunChecks","value":"true","required":"true"},
{"name":"licenseScopes","value":"compile,runtime","required":"false"},
{"name":"violationRecipients","value":"","required":"false"}],
"application":
[{"name":"name","value":"sparkmicrowebdemo","required":"true"},
{"name":"description","value":"Demo Spark Microweb application generated by realMethods","required":"false"},
{"name":"author","value":"dev@realmethods.com","required":"false"},
{"name":"corporate logo URL","value":"","required":""},
{"name":"application logo URL","value":"./img/turnstone.biologics.png","required":"false"},
{"name":"company name","value":"Turnstone Biologics","required":"true"},
{"name":"version","value":"0.0.1","required":"true"},
{"name":"package name","value":"com.occulue","required":"true"}],
"hibernate":
[{"name":"hibernate.connection.driver_class","value":"com.mysql.cj.jdbc.Driver","required":"true"},
{"name":"hibernate.connection.username","value":"root","required":"true"},
{"name":"hibernate.connection.password","value":"6969Cutlass!!","required":"true"},
{"name":"hibernate.dialect","value":"org.hibernate.dialect.MySQL8Dialect","required":"true"},
{"name":"hibernate.max.fetch.depth","value":"1","required":"false"},
{"name":"hibernate.connection.url","value":"jdbc:mysql://localhost:3306/sparkmicrowebdemo?createDatabaseIfNotExist\u003dtrue","required":"false"}]}
